{
	"verdict_info": [
		"<strong><em>{{horse_name}}</em></strong> is the {{logo}} Spotlight team's selection",
		"The {{logo}} Spotlight experts go for <strong><em>{{horse_name}}</em></strong>",
		"<strong><em>{{horse_name}}</em></strong> is the verdict of the {{logo}} Spotlight team"
	],
	"most_tipped": [
		"<strong><em>{{horse_name}}</em></strong> has been tipped today by <strong>{{selection_count}}</strong> national newspaper tipsters"
	],
	"key_stat": [
		"{{key_stats_str}}"
	]
}
